{
  "page": 1,
  "total_results": 1791,
  "total_pages": 90,
  "results": [
    {
      "popularity": 153.849,
      "vote_count": 744,
      "video": false,
      "poster_path": "\/1lt7uwXxNXxurOQqnEyosG6Y5zb.jpg",
      "id": 317442,
      "adult": false,
      "backdrop_path": "\/l8ubUlfzlB5R2j9cJ3CN7tj0gmd.jpg",
      "original_language": "ja",
      "original_title": "The Last: Naruto the Movie",
      "genre_ids": [
        28,
        16,
        10749
      ],
      "title": "The Last - Naruto O Filme",
      "vote_average": 7.8,
      "overview": "Após dois anos dos eventos da Quarta Guerra Mundial Ninja, a lua começa a cair em direção à terra. Com a lua agora como um meteoro que ameaça destruir tudo com o impacto, um Naruto mais velho tem de lidar com esta nova ameaça. Enquanto isso, uma concorrente a liderança do Clã Hyūga, Hinata, consegue entregar à Naruto um cachecol de valor sentimental amoroso no Festival de Inverno de Konohagakure, e, em seguida, é vítima de um fracassado sequestro de um vilão misterioso. Este vilão consegue tomar a irmã mais nova de Hinata, Hanabi Hyūga, como réfem, e assim atrai Naruto, Sakura, Sai, Shikamaru e Hinata em uma missão de resgate a Hanabi. Em meio a caça ao vilão, ocorre algumas conversas entre Naruto e Hinata, assim como encontros com o vilão, e os acontecimentos só fortalecem uma relação mais forte entre eles.",
      "release_date": "2014-12-06"
    },
    {
      "popularity": 66.239,
      "vote_count": 93,
      "video": false,
      "poster_path": "\/5oYdnnS9jVy9CQd47rBdv7W7bd5.jpg",
      "id": 553835,
      "adult": false,
      "backdrop_path": "\/zlpKUEE4A5LjaTmEz37pw2VZQug.jpg",
      "original_language": "ja",
      "original_title": "劇場版 ダンジョンに出会いを求めるのは間違っているだろうか -オリオンの矢-",
      "genre_ids": [
        28,
        12,
        16,
        35,
        14,
        10749
      ],
      "title": "DanMachi: A Flecha de Orion",
      "vote_average": 7.9,
      "overview": "Na cidade de Orario, sob uma torre impossivelmente alta, fica a masmorra. Somente os aventureiros que formam parcerias com os próprios deuses têm qualquer esperança de derrotar os monstros que estão dentro. Mas a masmorra não é o único lugar onde existem monstros. Longe de Orario, nas ruínas de uma antiga cidade, surge uma nova ameaça. Para combater essa ameaça, a deusa Ártemis veio a Orário em busca de um campeão - mas não é Ais Wallenstein nem Ottar que ela escolhe. Pelo contrário, é Bell Cranel, um aventureiro novato em parceria com uma deusa de baixo nível.",
      "release_date": "2019-02-15"
    },
    {
      "popularity": 58.43,
      "vote_count": 1872,
      "video": false,
      "poster_path": "\/qbh5F9mWPFbbNsdXkjHMYmjncqQ.jpg",
      "id": 445651,
      "adult": false,
      "backdrop_path": "\/5BxrMNGl3YDiWgHCVJu8iLQoJDM.jpg",
      "original_language": "en",
      "original_title": "The Darkest Minds",
      "genre_ids": [
        28,
        12,
        18,
        878,
        53,
        10749
      ],
      "title": "Mentes Sombrias",
      "vote_average": 7,
      "overview": "Em um mundo apocalíptico, onde uma pandemia mata a maioria das crianças e adolescentes da América, alguns sobreviventes desenvolvem poderes sobrenaturais. Eles então são tirados pelo governo de suas famílias e enviados para campos de custódia. Ruby (Amandla Stenberg), uma das sobreviventes, consegue escapar com outras crianças e sua vida muda para sempre.",
      "release_date": "2018-07-25"
    },
    {
      "popularity": 53.712,
      "vote_count": 10380,
      "video": false,
      "poster_path": "\/kqifqRhUWjx5WT0OJPxWbcnzc2O.jpg",
      "id": 102651,
      "adult": false,
      "backdrop_path": "\/xjotE7aFdZ0D8aGriYjFOtDayct.jpg",
      "original_language": "en",
      "original_title": "Maleficent",
      "genre_ids": [
        28,
        12,
        14,
        10749,
        10751
      ],
      "title": "Malévola",
      "vote_average": 7.1,
      "overview": "Malévola, uma jovem de coração puro, vive em um pacífico reino na floresta, até o dia em que um exército invasor ameaça a harmonia da região, fazendo com que ela se torne a mais feroz protetora do reino. No entanto, uma terrível traição a transforma em uma mulher amarga e vingativa. Como consequência, amaldiçoa Aurora, sua filha recém-nascida. Mas, aos poucos, Malévola percebe que a criança é a chave para a paz no reino e para sua verdadeira felicidade também.",
      "release_date": "2014-05-28"
    },
    {
      "popularity": 51.681,
      "vote_count": 323,
      "video": false,
      "poster_path": "\/Alntdcf829Cv115No44KOJb23IA.jpg",
      "id": 413594,
      "adult": false,
      "backdrop_path": "\/yFZG86Zvdy6JuIlMW9eHxlVkct5.jpg",
      "original_language": "ja",
      "original_title": "劇場版 ソードアート・オンライン -オーディナル・スケール-",
      "genre_ids": [
        28,
        12,
        16,
        14,
        878,
        10749
      ],
      "title": "Sword Art Online: Ordinal Scale",
      "vote_average": 7.5,
      "overview": "Em 2026, 4 anos após o infame incidente de Sword Art Online, uma nova forma de tecnologia emergiu: o Augma, um dispositivo que utiliza um sistema de Realidade Aumentada. Diferente da Realidade Virtual do NerveGear e do Amusphere, é perfeitamente seguro e permite aos jogadores à usarem enquanto estão conscientes, gerando um grande hit no mercado. A aplicação mais popular do Augma é o jogo Ordinal Scale, que emerge os jogadores em um RPG de fantasia com rankings e recompensas. Seguindo a nova mania, os amigos de Kirito mergulham no jogo e, apesar de seus receios sobre o sistema, Kirito eventualmente se junta à eles. Enquanto parece ser algo apenas para diversão e jogos à princípio, eles logo descobrem que o jogo não é tudo o que parece...",
      "release_date": "2017-02-18"
    },
    {
      "popularity": 47.43,
      "vote_count": 382,
      "video": false,
      "poster_path": "\/ywTSQfjmRe9DXLAgxXbFpjZJ2Yo.jpg",
      "id": 576156,
      "adult": false,
      "backdrop_path": "\/dwcazDHJQmC1euuc7oVvDHMRuCv.jpg",
      "original_language": "en",
      "original_title": "The Lovebirds",
      "genre_ids": [
        28,
        35,
        10749
      ],
      "title": "Um Crime para Dois",
      "vote_average": 6.4,
      "overview": "Estar à beira da separação não era suficiente. Esse casal também precisava se enroscar num assassinato, correr atrás do culpado e tentar provar sua inocência.",
      "release_date": "2020-05-22"
    },
    {
      "popularity": 32.899,
      "vote_count": 15,
      "video": false,
      "poster_path": "\/vreK2YNFCvOaP6wNaOvT4r27w3V.jpg",
      "id": 428292,
      "adult": false,
      "backdrop_path": "\/yW8jEMpPdXvrH2pmK1KDFj8xVxs.jpg",
      "original_language": "ja",
      "original_title": "劇場版 トリニティセブン -悠久図書館と錬金術少女-",
      "genre_ids": [
        28,
        16,
        35,
        14,
        10749
      ],
      "title": "Trinity Seven Movie: Eternity Library and Alchemic Girl",
      "vote_average": 7.2,
      "overview": "A história do filme começa quando Arata toca inadvertidamente \"Hermes Apocrypha\", Grimoire de Lilith. De repente, ele é envolto por uma luz branca brilhante, e uma menina aparece diante dele. Ela se chama Lilim e trata Arata e Lilith como seus pais. Ao mesmo tempo ela aparece, algo muda no mundo. A Proibida Biblioteca Eterna desperta. Na Biblioteca é selado o culminar final da Alquimia, o Senhor Branco Demônio. O Lorde do Demônio Branco trama para eliminar Arata e a Trindade Sete para usurpar a posição de Demônio Senhor. Bristling com poder incalculável, o White Demon Lord ataca Arata, e desencadeia uma crise desesperada onde Arata e Trinity Seven devem salvar o mundo nesta última batalha.",
      "release_date": "2017-02-01"
    },
    {
      "popularity": 30.524,
      "vote_count": 3382,
      "video": false,
      "poster_path": "\/57FDGagZiTxJdj56605UJM9cY4D.jpg",
      "id": 369885,
      "adult": false,
      "backdrop_path": "\/uHHwliWkaCbeVfWM9O36PYHj3Cj.jpg",
      "original_language": "en",
      "original_title": "Allied",
      "genre_ids": [
        28,
        18,
        10752,
        10749,
        53
      ],
      "title": "Aliados",
      "vote_average": 6.7,
      "overview": "Em uma missão para eliminar um embaixador nazista em Casablanca, no Marrocos, os espiões Max Vatan e Marianne Beausejour se apaixonam perdidamente e decidem se casar. Os problemas começam anos depois, com suspeitas sobre uma conexão entre Marianne e os alemães. Intrigado, Max decide investigar o passado da companheira e os dias de felicidade do casal vão por água abaixo.",
      "release_date": "2016-11-17"
    },
    {
      "popularity": 30.36,
      "vote_count": 3278,
      "video": false,
      "poster_path": "\/yRcR9DkNPcq7qKIasFxI12Cghxm.jpg",
      "id": 72710,
      "adult": false,
      "backdrop_path": "\/j69L2Fhp6LpVNyn0FqQtoQGlw3r.jpg",
      "original_language": "en",
      "original_title": "The Host",
      "genre_ids": [
        28,
        12,
        10749,
        878,
        53
      ],
      "title": "A Hospedeira",
      "vote_average": 6.3,
      "overview": "A Terra foi colonizada por uma raça alienígena que controla a mente dos humanos e usa seus corpos como hospedeiros. A maioria da humanidade foi erradicada, mas quando Melanie se recusa a aceitar sua nova alma, uma caçada se inicia.",
      "release_date": "2013-03-22"
    },
    {
      "popularity": 29.454,
      "vote_count": 4865,
      "video": false,
      "poster_path": "\/aRwe397WjpHouR5sCRH48XBdpvr.jpg",
      "id": 258489,
      "adult": false,
      "backdrop_path": "\/d9H2nXfKslf6B1cm7UtPBKhtUgA.jpg",
      "original_language": "en",
      "original_title": "The Legend of Tarzan",
      "genre_ids": [
        28,
        12,
        18,
        14,
        10749
      ],
      "title": "A Lenda de Tarzan",
      "vote_average": 5.8,
      "overview": "Releitura da clássica lenda de Tarzan, na qual um pequeno garoto órfão é criado na selva, e mais tarde tenta se adaptar à vida entre os humanos. Na década de 30, Tarzan, aclimitado à vida em Londres em conjunto com sua esposa Jane, é chamado para retornar à selva onde passou a maior parte da sua vida onde servirá como um emissário do Parlamento Britânico.",
      "release_date": "2016-06-29"
    },
    {
      "popularity": 28.915,
      "id": 10515,
      "video": false,
      "vote_count": 2528,
      "vote_average": 8,
      "title": "O Castelo no Céu",
      "release_date": "1986-08-02",
      "original_language": "ja",
      "original_title": "天空の城ラピュタ",
      "genre_ids": [
        12,
        14,
        16,
        28,
        10751,
        10749
      ],
      "backdrop_path": "\/syCMqs6Bp9bNzgBawnWAd1QvR1U.jpg",
      "adult": false,
      "overview": "Pazu, um aprendiz de engenheiro, conhece uma jovem garota dona de um colar brilhante, Sheeta, e descobrem que ambos estão procurando pelo legendário castelo flutuante. Assim começa uma aventura com piratas gananciosos dos céus, agentes secretos e obstáculos que tentam esconder a verdade e resgatar o misterioso colar.",
      "poster_path": "\/1yoI4FyiUamyWhZtnfH81se206f.jpg"
    },
    {
      "popularity": 28.775,
      "id": 22538,
      "video": false,
      "vote_count": 5140,
      "vote_average": 7.4,
      "title": "Scott Pilgrim Contra o Mundo",
      "release_date": "2010-08-12",
      "original_language": "en",
      "original_title": "Scott Pilgrim vs. the World",
      "genre_ids": [
        28,
        35,
        10749,
        10402,
        14
      ],
      "backdrop_path": "\/y8PiciKEA6U2auHwTM788o0KAYq.jpg",
      "adult": false,
      "overview": "Scott Pilgrim (Michael Cera) tem 23 anos, integra uma banda de colégio, vive trocando de emprego e tem um namoro firme. Sua vida está maravilhosa, até conhecer Ramona V. Flowers (Mary Elizabeth Winestead). Ele logo se apaixona perdidamente por ela, só que não será fácil conquistar seu amor. Para tanto ele precisa enfrentar os sete ex-namorados dela, que estão dispostos a tudo para impedir sua felicidade com outra pessoa.",
      "poster_path": "\/76lDDTbW56uQRTRsAN4lAbqIPSV.jpg"
    },
    {
      "popularity": 28.63,
      "vote_count": 185,
      "video": false,
      "poster_path": "\/bPdE1CbdP8Bf1NMg9PF4QkPR9oZ.jpg",
      "id": 14324,
      "adult": false,
      "backdrop_path": "\/6VbMojprKuDe6c0mDkBWPDslaiu.jpg",
      "original_language": "en",
      "original_title": "Virgin Territory",
      "genre_ids": [
        28,
        12,
        35,
        10749
      ],
      "title": "Território Virgem",
      "vote_average": 4.4,
      "overview": "",
      "release_date": "2007-12-17"
    },
    {
      "popularity": 28.385,
      "id": 417320,
      "video": false,
      "vote_count": 1139,
      "vote_average": 7.4,
      "title": "Descendentes 2",
      "release_date": "2017-07-21",
      "original_language": "en",
      "original_title": "Descendants 2",
      "genre_ids": [
        10751,
        10402,
        10770,
        12,
        28,
        14,
        10749
      ],
      "backdrop_path": "\/cAIZGcphlrXkS4YXS1JEiAXEPMM.jpg",
      "adult": false,
      "overview": "Mal, Jay, Carlos e Evie tentam encontrar seus lugares em Auradon, mas a pressão de se tornar um membro perfeito da realeza deixa Mal deslocada.",
      "poster_path": "\/5jGEBYg13Sa1J3D6KOlQ2EH8Uxg.jpg"
    },
    {
      "popularity": 26.581,
      "vote_count": 71,
      "video": false,
      "poster_path": "\/c27aMnKVBInnVblmUIFAmV1Mnac.jpg",
      "id": 597094,
      "adult": false,
      "backdrop_path": "\/jSoSj5XEgJeS9kG3QVQYqGSlytN.jpg",
      "original_language": "ja",
      "original_title": "初恋",
      "genre_ids": [
        28,
        80,
        18,
        10749
      ],
      "title": "Primeiro Amor",
      "vote_average": 7.1,
      "overview": "Um jovem boxeador e uma garota de programa são apanhados em um esquema de tráfico de drogas ao longo de uma noite em Tóquio.",
      "release_date": "2019-05-31"
    },
    {
      "popularity": 26.471,
      "vote_count": 2087,
      "video": false,
      "poster_path": "\/hFpqFoLdQnsNOqBQfyN8LsnWxLC.jpg",
      "id": 9476,
      "adult": false,
      "backdrop_path": "\/inFHVFQb1qUzSSb8OjQs3B6kmIJ.jpg",
      "original_language": "en",
      "original_title": "A Knight's Tale",
      "genre_ids": [
        12,
        18,
        10749,
        28
      ],
      "title": "Coração de Cavaleiro",
      "vote_average": 6.8,
      "overview": "Após seu mestre morrer subitamente, o jovem William (Heath Ledger), um valoroso escudeiro, resolve substituí-lo em uma competição envolvendo combate com lanças. Para tanto passa a treinar exaustivamente e consegue convencer Chauncer (Paul Bettany), um escritor, a forjar para ele uma nobre árvore genealógica.",
      "release_date": "2001-05-11"
    },
    {
      "popularity": 25.678,
      "vote_count": 1246,
      "video": false,
      "poster_path": "\/dgnolnYAgrORkSoY89TSIyy79Sq.jpg",
      "id": 8856,
      "adult": false,
      "backdrop_path": "\/1hJVLQqYY4nvSF0vaitaXVHzcgc.jpg",
      "original_language": "en",
      "original_title": "The Karate Kid Part II",
      "genre_ids": [
        12,
        18,
        28,
        10749,
        10751
      ],
      "title": "Karatê Kid 2 - A Hora da Verdade Continua",
      "vote_average": 6.2,
      "overview": "Ao descobrir que seu pai está à beira da morte, o professor Miyagi volta para Okinawa, no Japão, junto com seu aprendiz, Daniel. Na terra natal, o mestre de caratê é surpreendido com a notícia de que Yukie, seu grande e antigo amor, está solteira.",
      "release_date": "1986-06-18"
    },
    {
      "popularity": 24.26,
      "id": 37710,
      "video": false,
      "vote_count": 4019,
      "vote_average": 6.2,
      "title": "O Turista",
      "release_date": "2010-12-08",
      "original_language": "en",
      "original_title": "The Tourist",
      "genre_ids": [
        28,
        53,
        10749
      ],
      "backdrop_path": "\/p2J39WwOiHo5p0oquzluzP1IlqQ.jpg",
      "adult": false,
      "overview": "Durante uma viagem improvisada à Europa para curar um coração partido, o professor de matemática Frank Tupelo se vê em uma situação extraordinária quando uma estranha sedutora, Elise, cruza seu caminho. A paquera aparentemente inocente se transforma em um perigoso jogo de gato e rato.",
      "poster_path": "\/q3VomS6Rj0J1S1xBdQy92LQ8b7k.jpg"
    },
    {
      "popularity": 23.464,
      "vote_count": 2325,
      "video": false,
      "poster_path": "\/7JTsbi6Tw9ieR4stSKNGXgwFJnN.jpg",
      "id": 1966,
      "adult": false,
      "backdrop_path": "\/sqY4MVhtCCwQsUaiO9ge3HLSfYy.jpg",
      "original_language": "en",
      "original_title": "Alexander",
      "genre_ids": [
        28,
        12,
        18,
        36,
        10749,
        10752
      ],
      "title": "Alexandre",
      "vote_average": 5.9,
      "overview": "Conquistando 90 por cento do mundo até os 25 anos de idade, Alexandre, o Grande liderou seu exército por 35.000 km em ataques e conquistas em apenas oito anos. Da minúscula Macedônia, Alexandre liderou seu exército contra o poderoso Império Persa, rumou para o Egito e finalmente chegou à Índia.",
      "release_date": "2004-11-21"
    },
    {
      "popularity": 21.266,
      "vote_count": 459,
      "video": false,
      "poster_path": "\/h7CP12wAThhw2WSOA1uIAqxg1fS.jpg",
      "id": 38543,
      "adult": false,
      "backdrop_path": "\/rprg34i9MfIRAJdBcjAWaV7JXRe.jpg",
      "original_language": "en",
      "original_title": "Ironclad",
      "genre_ids": [
        28,
        12,
        36,
        10749
      ],
      "title": "Sangue e Honra",
      "vote_average": 6.1,
      "overview": "Sangue e Honra leva diretamente a um dos momentos mais violentos e cruciais da Inglaterra do século 13. Quando alguns homens de bem revoltaram-se contra as injustiças do seu rei ambicioso, tornaram a devastadora batalha pelo castelo de Rochester em uma verdadeira lição de honra, ação e emoção. Esses heróis foram apagados das páginas da história…Até agora...",
      "release_date": "2011-03-03"
    }
  ]
}